\relax 
\providecommand\hyper@newdestlabel[2]{}
\providecommand\HyperFirstAtBeginDocument{\AtBeginDocument}
\HyperFirstAtBeginDocument{\ifx\hyper@anchor\@undefined
\global\let\oldcontentsline\contentsline
\gdef\contentsline#1#2#3#4{\oldcontentsline{#1}{#2}{#3}}
\global\let\oldnewlabel\newlabel
\gdef\newlabel#1#2{\newlabelxx{#1}#2}
\gdef\newlabelxx#1#2#3#4#5#6{\oldnewlabel{#1}{{#2}{#3}}}
\AtEndDocument{\ifx\hyper@anchor\@undefined
\let\contentsline\oldcontentsline
\let\newlabel\oldnewlabel
\fi}
\fi}
\global\let\hyper@last\relax 
\gdef\HyperFirstAtBeginDocument#1{#1}
\providecommand\HyField@AuxAddToFields[1]{}
\providecommand\HyField@AuxAddToCoFields[2]{}
\@writefile{toc}{\contentsline {section}{\numberline {1}Theoretical Assignment}{1}{section.1}}
\@writefile{lol}{\contentsline {lstlisting}{\numberline {1}The debugged makefile}{1}{lstlisting.1}}
\@writefile{lol}{\contentsline {lstlisting}{\numberline {2}The debugged .c file.}{2}{lstlisting.2}}
\@writefile{toc}{\contentsline {section}{\numberline {2}Practical Assignment}{2}{section.2}}
\@writefile{lof}{\contentsline {figure}{\numberline {1}{\ignorespaces A plot of the function f(x)=$\sqrt  {x}$ using the calculated values and also the math.h function.\relax }}{3}{figure.caption.1}}
